<?xml version="1.0" encoding="utf-8"?>
<!-- Generator: Adobe Illustrator 22.0.1, SVG Export Plug-In . SVG Version: 6.00 Build 0)  -->
<svg version="1.1" id="Layer_1" xmlns="http://www.w3.org/2000/svg" xmlns:xlink="http://www.w3.org/1999/xlink" x="0px" y="0px"
	 viewBox="0 0 48 48" style="enable-background:new 0 0 48 48;" xml:space="preserve">
<style type="text/css">
	.st0{fill:none;stroke:#1CC691;}
</style>
<g transform="translate(2 2)">
	<circle class="st0" cx="22" cy="22" r="22"/>
	<path class="st0" d="M11.4,21.7l7.4,7.3l14.1-14"/>
</g>
</svg>
