<?xml version="1.0" encoding="utf-8"?>
<!-- Generator: Adobe Illustrator 22.0.1, SVG Export Plug-In . SVG Version: 6.00 Build 0)  -->
<svg version="1.1" id="Layer_1" xmlns="http://www.w3.org/2000/svg" xmlns:xlink="http://www.w3.org/1999/xlink" x="0px" y="0px"
	 viewBox="0 0 32 32" style="enable-background:new 0 0 32 32;" xml:space="preserve">
<style type="text/css">
	.st0{fill-opacity:5.000000e-02;}
	.st1{fill:#E8F9F4;}
	.st2{fill:#1CC691;}
	.st3{fill:none;stroke:#1CC691;stroke-linecap:round;stroke-linejoin:round;}
	.st4{fill:#D8D8D8;stroke:#1CC691;stroke-linecap:round;stroke-linejoin:round;}
</style>
<path class="st0" d="M5.5,7.5H31v18H5.5V7.5z"/>
<path class="st1" d="M5.4,7.6h25.5v18H5.4V7.6z"/>
<path class="st2" d="M14.5,9c0.4,0,0.8-0.3,0.8-0.8c0-0.4-0.3-0.8-0.8-0.8s-0.8,0.3-0.8,0.8C13.8,8.7,14.1,9,14.5,9z"/>
<path class="st2" d="M14.5,19.5c0.4,0,0.8-0.3,0.8-0.8S14.9,18,14.5,18s-0.8,0.3-0.8,0.8S14.1,19.5,14.5,19.5z"/>
<path class="st2" d="M19,13.5c0,0.4,0.3,0.8,0.8,0.8s0.8-0.3,0.8-0.8s-0.3-0.8-0.8-0.8S19,13.1,19,13.5z"/>
<path class="st2" d="M8.5,13.5c0,0.4,0.3,0.8,0.8,0.8s0.8-0.3,0.8-0.8s-0.3-0.8-0.8-0.8S8.5,13.1,8.5,13.5z"/>
<path class="st2" d="M17.7,16.7c-0.3,0.3-0.3,0.8,0,1.1s0.8,0.3,1.1,0c0.3-0.3,0.3-0.8,0-1.1C18.4,16.4,18,16.4,17.7,16.7z"/>
<path class="st2" d="M10.3,9.3c-0.3,0.3-0.3,0.8,0,1.1c0.3,0.3,0.8,0.3,1.1,0c0.3-0.3,0.3-0.8,0-1.1S10.6,9,10.3,9.3z"/>
<path class="st2" d="M11.3,16.7c-0.3-0.3-0.8-0.3-1.1,0c-0.3,0.3-0.3,0.8,0,1.1c0.3,0.3,0.8,0.3,1.1,0C11.6,17.4,11.6,17,11.3,16.7z
	"/>
<path class="st2" d="M18.7,9.3C18.4,9,18,9,17.7,9.3c-0.3,0.3-0.3,0.8,0,1.1c0.3,0.3,0.8,0.3,1.1,0C19,10,19,9.6,18.7,9.3z"/>
<path class="st3" d="M1.8,4.5h25.4v18H1.8V4.5z"/>
<path class="st4" d="M1.8,3v26"/>
</svg>
