<?xml version="1.0" encoding="utf-8"?>
<!-- Generator: Adobe Illustrator 22.0.1, SVG Export Plug-In . SVG Version: 6.00 Build 0)  -->
<svg version="1.1" id="Layer_1" xmlns="http://www.w3.org/2000/svg" xmlns:xlink="http://www.w3.org/1999/xlink" x="0px" y="0px"
	 viewBox="0 0 48 48" style="enable-background:new 0 0 48 48;" xml:space="preserve">
<style type="text/css">
	.st0{fill:none;stroke:#666666;}
</style>
<rect x="5.7" y="9.3" class="st0" width="37.7" height="24"/>
<line class="st0" x1="19.3" y1="37.8" x2="28.4" y2="37.8"/>
<line class="st0" x1="24" y1="32.9" x2="24" y2="37.9"/>
</svg>
